info face="Volter (Goldfish)" size=18 bold=0 italic=0 charset="" unicode=0 stretchH=100 smooth=1 aa=1 padding=0,0,0,0 spacing=1,1
common lineHeight=20 base=16 scaleW=512 scaleH=512 pages=1 packed=0
page id=0 file="volter.png"
chars count=94
char id=32   x=0     y=0     width=0     height=0     xoffset=0     yoffset=16    xadvance=10     page=0  chnl=0 
char id=36   x=0     y=0     width=16     height=20     xoffset=0     yoffset=-1    xadvance=16     page=0  chnl=0 
char id=106   x=16     y=0     width=6     height=20     xoffset=0     yoffset=1    xadvance=6     page=0  chnl=0 
char id=81   x=22     y=0     width=14     height=18     xoffset=0     yoffset=1    xadvance=14     page=0  chnl=0 
char id=38   x=36     y=0     width=14     height=16     xoffset=0     yoffset=1    xadvance=14     page=0  chnl=0 
char id=37   x=50     y=0     width=16     height=16     xoffset=0     yoffset=1    xadvance=16     page=0  chnl=0 
char id=92   x=66     y=0     width=16     height=16     xoffset=0     yoffset=1    xadvance=16     page=0  chnl=0 
char id=64   x=82     y=0     width=16     height=16     xoffset=0     yoffset=1    xadvance=16     page=0  chnl=0 
char id=47   x=98     y=0     width=16     height=16     xoffset=0     yoffset=1    xadvance=16     page=0  chnl=0 
char id=124   x=114     y=0     width=16     height=16     xoffset=0     yoffset=1    xadvance=16     page=0  chnl=0 
char id=62   x=130     y=0     width=10     height=16     xoffset=0     yoffset=1    xadvance=10     page=0  chnl=0 
char id=60   x=140     y=0     width=10     height=16     xoffset=0     yoffset=1    xadvance=10     page=0  chnl=0 
char id=125   x=150     y=0     width=10     height=16     xoffset=0     yoffset=1    xadvance=10     page=0  chnl=0 
char id=123   x=160     y=0     width=10     height=16     xoffset=0     yoffset=1    xadvance=10     page=0  chnl=0 
char id=93   x=170     y=0     width=8     height=16     xoffset=0     yoffset=1    xadvance=8     page=0  chnl=0 
char id=91   x=178     y=0     width=8     height=16     xoffset=0     yoffset=1    xadvance=8     page=0  chnl=0 
char id=41   x=186     y=0     width=8     height=16     xoffset=0     yoffset=1    xadvance=8     page=0  chnl=0 
char id=40   x=194     y=0     width=8     height=16     xoffset=0     yoffset=1    xadvance=8     page=0  chnl=0 
char id=59   x=202     y=0     width=6     height=16     xoffset=0     yoffset=5    xadvance=6     page=0  chnl=0 
char id=63   x=208     y=0     width=12     height=16     xoffset=0     yoffset=1    xadvance=12     page=0  chnl=0 
char id=33   x=220     y=0     width=4     height=16     xoffset=0     yoffset=1    xadvance=4     page=0  chnl=0 
char id=48   x=224     y=0     width=12     height=16     xoffset=0     yoffset=1    xadvance=12     page=0  chnl=0 
char id=57   x=236     y=0     width=12     height=16     xoffset=0     yoffset=1    xadvance=12     page=0  chnl=0 
char id=56   x=248     y=0     width=12     height=16     xoffset=0     yoffset=1    xadvance=12     page=0  chnl=0 
char id=55   x=260     y=0     width=12     height=16     xoffset=0     yoffset=1    xadvance=12     page=0  chnl=0 
char id=54   x=272     y=0     width=12     height=16     xoffset=0     yoffset=1    xadvance=12     page=0  chnl=0 
char id=53   x=284     y=0     width=12     height=16     xoffset=0     yoffset=1    xadvance=12     page=0  chnl=0 
char id=52   x=296     y=0     width=12     height=16     xoffset=0     yoffset=1    xadvance=12     page=0  chnl=0 
char id=51   x=308     y=0     width=12     height=16     xoffset=0     yoffset=1    xadvance=12     page=0  chnl=0 
char id=50   x=320     y=0     width=12     height=16     xoffset=0     yoffset=1    xadvance=12     page=0  chnl=0 
char id=49   x=332     y=0     width=6     height=16     xoffset=0     yoffset=1    xadvance=6     page=0  chnl=0 
char id=121   x=338     y=0     width=12     height=16     xoffset=0     yoffset=5    xadvance=12     page=0  chnl=0 
char id=116   x=350     y=0     width=10     height=16     xoffset=0     yoffset=1    xadvance=10     page=0  chnl=0 
char id=113   x=360     y=0     width=12     height=16     xoffset=0     yoffset=5    xadvance=12     page=0  chnl=0 
char id=112   x=372     y=0     width=12     height=16     xoffset=0     yoffset=5    xadvance=12     page=0  chnl=0 
char id=108   x=384     y=0     width=4     height=16     xoffset=0     yoffset=1    xadvance=4     page=0  chnl=0 
char id=107   x=388     y=0     width=10     height=16     xoffset=0     yoffset=1    xadvance=10     page=0  chnl=0 
char id=105   x=398     y=0     width=4     height=16     xoffset=0     yoffset=1    xadvance=4     page=0  chnl=0 
char id=104   x=402     y=0     width=12     height=16     xoffset=0     yoffset=1    xadvance=12     page=0  chnl=0 
char id=103   x=414     y=0     width=12     height=16     xoffset=0     yoffset=5    xadvance=12     page=0  chnl=0 
char id=102   x=426     y=0     width=10     height=16     xoffset=0     yoffset=1    xadvance=10     page=0  chnl=0 
char id=100   x=436     y=0     width=12     height=16     xoffset=0     yoffset=1    xadvance=12     page=0  chnl=0 
char id=98   x=448     y=0     width=12     height=16     xoffset=0     yoffset=1    xadvance=12     page=0  chnl=0 
char id=90   x=460     y=0     width=12     height=16     xoffset=0     yoffset=1    xadvance=12     page=0  chnl=0 
char id=89   x=472     y=0     width=12     height=16     xoffset=0     yoffset=1    xadvance=12     page=0  chnl=0 
char id=88   x=484     y=0     width=12     height=16     xoffset=0     yoffset=1    xadvance=12     page=0  chnl=0 
char id=87   x=0     y=20     width=16     height=16     xoffset=0     yoffset=1    xadvance=16     page=0  chnl=0 
char id=86   x=16     y=20     width=12     height=16     xoffset=0     yoffset=1    xadvance=12     page=0  chnl=0 
char id=85   x=28     y=20     width=12     height=16     xoffset=0     yoffset=1    xadvance=12     page=0  chnl=0 
char id=84   x=40     y=20     width=12     height=16     xoffset=0     yoffset=1    xadvance=12     page=0  chnl=0 
char id=83   x=52     y=20     width=12     height=16     xoffset=0     yoffset=1    xadvance=12     page=0  chnl=0 
char id=82   x=64     y=20     width=12     height=16     xoffset=0     yoffset=1    xadvance=12     page=0  chnl=0 
char id=80   x=76     y=20     width=12     height=16     xoffset=0     yoffset=1    xadvance=12     page=0  chnl=0 
char id=79   x=88     y=20     width=12     height=16     xoffset=0     yoffset=1    xadvance=12     page=0  chnl=0 
char id=78   x=100     y=20     width=12     height=16     xoffset=0     yoffset=1    xadvance=12     page=0  chnl=0 
char id=77   x=112     y=20     width=14     height=16     xoffset=0     yoffset=1    xadvance=14     page=0  chnl=0 
char id=76   x=126     y=20     width=12     height=16     xoffset=0     yoffset=1    xadvance=12     page=0  chnl=0 
char id=75   x=138     y=20     width=12     height=16     xoffset=0     yoffset=1    xadvance=12     page=0  chnl=0 
char id=74   x=150     y=20     width=12     height=16     xoffset=0     yoffset=1    xadvance=12     page=0  chnl=0 
char id=73   x=162     y=20     width=8     height=16     xoffset=0     yoffset=1    xadvance=8     page=0  chnl=0 
char id=72   x=170     y=20     width=12     height=16     xoffset=0     yoffset=1    xadvance=12     page=0  chnl=0 
char id=71   x=182     y=20     width=12     height=16     xoffset=0     yoffset=1    xadvance=12     page=0  chnl=0 
char id=70   x=194     y=20     width=12     height=16     xoffset=0     yoffset=1    xadvance=12     page=0  chnl=0 
char id=69   x=206     y=20     width=12     height=16     xoffset=0     yoffset=1    xadvance=12     page=0  chnl=0 
char id=68   x=218     y=20     width=12     height=16     xoffset=0     yoffset=1    xadvance=12     page=0  chnl=0 
char id=67   x=230     y=20     width=12     height=16     xoffset=0     yoffset=1    xadvance=12     page=0  chnl=0 
char id=66   x=242     y=20     width=12     height=16     xoffset=0     yoffset=1    xadvance=12     page=0  chnl=0 
char id=65   x=254     y=20     width=12     height=16     xoffset=0     yoffset=1    xadvance=12     page=0  chnl=0 
char id=35   x=266     y=20     width=14     height=14     xoffset=0     yoffset=1    xadvance=14     page=0  chnl=0 
char id=42   x=280     y=20     width=12     height=12     xoffset=0     yoffset=-1    xadvance=12     page=0  chnl=0 
char id=43   x=292     y=20     width=12     height=12     xoffset=0     yoffset=5    xadvance=12     page=0  chnl=0 
char id=58   x=304     y=20     width=6     height=12     xoffset=0     yoffset=5    xadvance=6     page=0  chnl=0 
char id=122   x=310     y=20     width=12     height=12     xoffset=0     yoffset=5    xadvance=12     page=0  chnl=0 
char id=120   x=322     y=20     width=12     height=12     xoffset=0     yoffset=5    xadvance=12     page=0  chnl=0 
char id=119   x=334     y=20     width=16     height=12     xoffset=0     yoffset=5    xadvance=16     page=0  chnl=0 
char id=118   x=350     y=20     width=12     height=12     xoffset=0     yoffset=5    xadvance=12     page=0  chnl=0 
char id=117   x=362     y=20     width=12     height=12     xoffset=0     yoffset=5    xadvance=12     page=0  chnl=0 
char id=115   x=374     y=20     width=12     height=12     xoffset=0     yoffset=5    xadvance=12     page=0  chnl=0 
char id=114   x=386     y=20     width=10     height=12     xoffset=0     yoffset=5    xadvance=10     page=0  chnl=0 
char id=111   x=396     y=20     width=12     height=12     xoffset=0     yoffset=5    xadvance=12     page=0  chnl=0 
char id=110   x=408     y=20     width=12     height=12     xoffset=0     yoffset=5    xadvance=12     page=0  chnl=0 
char id=109   x=420     y=20     width=16     height=12     xoffset=0     yoffset=5    xadvance=16     page=0  chnl=0 
char id=101   x=436     y=20     width=12     height=12     xoffset=0     yoffset=5    xadvance=12     page=0  chnl=0 
char id=99   x=448     y=20     width=12     height=12     xoffset=0     yoffset=5    xadvance=12     page=0  chnl=0 
char id=97   x=460     y=20     width=12     height=12     xoffset=0     yoffset=5    xadvance=12     page=0  chnl=0 
char id=44   x=472     y=20     width=6     height=10     xoffset=0     yoffset=11    xadvance=6     page=0  chnl=0 
char id=61   x=478     y=20     width=12     height=8     xoffset=0     yoffset=7    xadvance=12     page=0  chnl=0 
char id=39   x=490     y=20     width=4     height=8     xoffset=0     yoffset=1    xadvance=4     page=0  chnl=0 
char id=126   x=494     y=20     width=12     height=6     xoffset=0     yoffset=1    xadvance=12     page=0  chnl=0 
char id=94   x=0     y=36     width=8     height=6     xoffset=0     yoffset=1    xadvance=8     page=0  chnl=0 
char id=46   x=8     y=36     width=6     height=6     xoffset=0     yoffset=11    xadvance=6     page=0  chnl=0 
char id=96   x=14     y=36     width=6     height=6     xoffset=0     yoffset=1    xadvance=6     page=0  chnl=0 
char id=34   x=20     y=36     width=8     height=6     xoffset=0     yoffset=1    xadvance=8     page=0  chnl=0 
char id=95   x=28     y=36     width=14     height=4     xoffset=0     yoffset=13    xadvance=14     page=0  chnl=0 
char id=45   x=42     y=36     width=10     height=4     xoffset=0     yoffset=9    xadvance=10     page=0  chnl=0 
